{
  "project_info": {
    "project_id": "lokavidya-1229",
    "project_number": "94508248358",
    "name": "Lokavidya"
  },
  "client": [
    {
      "client_info": {
        "mobilesdk_app_id": "1:94508248358:android:e86c51729278c3b8",
        "client_id": "android:com.iitb.mobileict.lokavidya",
        "client_type": 1,
        "android_client_info": {
          "package_name": "com.iitb.mobileict.lokavidya",
          "certificate_hash": []
        }
      },
      "oauth_client": [
        {
          "client_id": "94508248358-j8gdciafed4849lkbpunefstd73ckcei.apps.googleusercontent.com",
          "client_type": 1,
          "android_info": {
            "package_name": "com.iitb.mobileict.lokavidya",
            "certificate_hash": "EBD20037501F249C18AE5989C77894E43E7F4CF4"
          }
        },
        {
          "client_id": "94508248358-5fojc9majhcr9j3jidapel6vu3fbdvin.apps.googleusercontent.com",
          "client_type": 3
        }
      ],
      "api_key": [],
      "services": {
        "analytics_service": {
          "status": 1
        },
        "cloud_messaging_service": {
          "status": 2,
          "apns_config": []
        },
        "appinvite_service": {
          "status": 1,
          "other_platform_oauth_client": []
        },
        "google_signin_service": {
          "status": 2
        },
        "ads_service": {
          "status": 1
        }
      }
    }
  ],
  "client_info": [],
  "ARTIFACT_VERSION": "1"
}